$VAR1 = {
  '__lists' => {
    'ergonlogic@Twitter' => {}
  },
  '__reply_to_ids' => {
    'darthsteven' => [
      undef,
      undef,
      undef,
      '126984578173906944',
      '126984578173906944',
      '127000752030887936'
    ],
    'ergonlogic' => [
      undef,
      undef,
      undef,
      undef,
      '114662323121172481',
      undef,
      undef,
      undef,
      undef,
      undef,
      undef,
      undef,
      undef,
      '126956027487854592',
      '126995154191126528',
      undef,
      '128435974194733057',
      undef,
      undef,
      '137203653110005761'
    ]
  },
  '__reply_to_users' => {
    'darthsteven' => [
      undef,
      undef,
      undef,
      'ergonlogic',
      'ergonlogic',
      'ergonlogic'
    ],
    'ergonlogic' => [
      undef,
      undef,
      undef,
      undef,
      'darthsteven',
      undef,
      undef,
      undef,
      undef,
      undef,
      undef,
      undef,
      undef,
      'darthsteven',
      'darthsteven',
      undef,
      '_mig5',
      undef,
      undef,
      'patconnolly'
    ]
  },
  '__last_id' => {
    'ergonlogic@Twitter' => {
      'reply' => '137203653110005761',
      '__search' => {},
      'timeline' => '138644718312636416'
    }
  },
  '__channels' => {},
  '__windows' => {
    'sender' => {},
    'list' => {}
  },
  '__tweets' => {
    'modules_sandbox' => [
      undef,
      'Wishlist block: This is a wishlist block module. uc_wishlist module does not provide a block to display products... http://t.co/dNI84TQt',
      'Drupbile: Provides Mobile functionality to your Drupal Website. More Information coming soon... http://t.co/FC4JLbGW',
      'i18n wysiwyg block fix: This tiny module allow users to translate their blocks using i18n and Wysiwyg as seen in... http://t.co/nnQ4pd4n',
      'Profile 2 Services: Services Resources for Profile 2 http://t.co/N8m5DwTQ',
      'teranga: Teranga tracks visits in user profile pages. Teranga is from WOLOF dialect and refers to how visitors a... http://t.co/aAcUbs38',
      'Facebox: This module hooks up the Facebox modal lightbox into Drupal. For now, it calls the library (once downlo... http://t.co/JeUVkOQt',
      'Commerce Shipping Australia Post: A Drupal Commerce Shipping plugin for integrating with the Australia Post post... http://t.co/R3z4A082',
      'Occupy Jekyll Island: This is NOT a full time occupation...it\'s a proposed week long summit on historic Jekyll I... http://t.co/5cCGue2e',
      'crud table: this module provide a accessing your tables in profile page. tab dolphin Allows the user to both cre... http://t.co/YSCo1ixC',
      'CommonNonsense iMIS Integration: Integration with iMIS http://t.co/6mdtz3Pn',
      'HTML5 Upload: This modules should be regarded a streamlined solution for batch-uploading of images (and other fi... http://t.co/tdBP8nKl',
      'Commerce decimal quantities: This module enables you to give decimal quantities for a product. http://t.co/UivQ6CYC'
    ],
    'weitzman' => [
      undef,
      'RT @cshirky: Militarization of Campus Police: How is it that non-violent protest has suddenly become "unsafe" in the United States? http://t.co/kj2fVgYK',
      'RT @rustyw: Pepper spray stroll in the park.  Hilarious and poignant. RT @shervin: This is amazing. http://t.co/7IIa3IN0'
    ],
    'patconnolly' => [
      undef,
      '@ergonlogic Hey man, so freakin damn glad I got to meet you at #dcto! Might be in MTL not this week but next, if you\'re up for beers'
    ],
    'scyrma' => [
      undef,
      "RT \@Malarkey: \x{201c}Requires a Facebook account\x{201d} is like \x{201c}Best viewed in Netscape 4.\x{201d}"
    ],
    'ericg' => [
      undef,
      'chili late lunch at Big Bear.  http://t.co/hxQCTz4F',
      'RT @dhcole: An \'08 election map that\'s about people, not boundaries: http://t.co/BdwM5ddb',
      'kicking off a late night of work on @MapBox w/ @willwhitedc at Big Bear http://t.co/VALHb60O',
      'election maps representing people - @dhcole maps 2008 Presidential Election by 2010 Population http://t.co/Z5bV8kD2'
    ],
    'darthsteven' => [
      undef,
      'A nice cup of tea and Garrow\'s Law to round off an otherwise crazy busy Sunday. #fb',
      'RT @JohnAlbin: There are fewer IE7 users than IE6 users. http://t.co/ySigyZPe If you\'ve dropped support for IE6, why not for IE7?',
      '@ergonlogic Going well so far, only 100 sites left to go...',
      '@ergonlogic All done :)',
      '@ergonlogic Custom drush script, which I could probably tidy up this weekend and release, only about 200 lines of code.'
    ],
    'doctorow' => [
      undef,
      "\"If Only They Enforced Bank Regulations Like They Do Park Rules, We Wouldn\x{2019}t Be In This Mess\" #OWS http://t.co/rZGa4C2s",
      'RT @Ray_Katz: @drenton @doctorow #OWS If only they enforced the 1st amendment like they do park rules.',
      'RT @wecanwait: @doctorow Unfortunately, they enforce bank regulations like *parking* rules... if you have the money, the ticket can be fixed.',
      'RT @cfarivar: NYT: Afghanistan Has Big Plans for Biometric Data http://t.co/RKCZ4dTE @Liberationtech @doctorow @e3i5  @evgenymorozov',
      'RT @tiny_little_dot: don\'t be evil != do no evil. but how much evil do you have to do before you ARE evil? (re: google\'s motto) #privacy #philcon',
      'RT @tiny_little_dot: .@doctorow RT @ecormany: lately Google seems to be shooting for chaotic neutral.',
      'RT @TheRedViper: @doctorow Video from home. Media reported "couple hundred" at #occTO. Camera pans at 0:04 & 0:34. http://t.co/fxWbAjBF',
      "RT \@GlennF: Heavens to Etsy, that\x{2019}s a pretty hipster crochet!",
      'RT @cbtacy: RT @OWSLibrary NYPD closing sidewalks on upper east side, can\'t answer why - calls them a "frozen zone": http://t.co/ibCrGJEV',
      'RT @cbtacy: RT @nicoles Reports that the woman claiming to be Bloomberg press sec was actually a performance artist. Hilarious! #ows',
      'RT @scalzi: SFContario 2 now in the books; I had a wonderful time as the guest of honour. Now relaxing before going out to dinner with friends.',
      'A fabulous #philcon -- thanks so much to the volunteers and the attendees for a marvellous time!',
      'RT @dynamicsymmetry: I\'m with @xeni; no problem with drum circles when they\'re deployed tactically. The scene in front of #Bloomberg\'s mansion is awesome. #ows',
      'RT @pablod: Wait. So @mikebloomberg hasn\'t tweeted in two days? Does \'he\' only tweet on weekdays? Hah. Ass. #DrumCircles #occupyeverywhere',
      'Heading to #OWS this afternoon, just as soon as I finish work on Little Brother II/Homeland #NYC',
      'RT @JPBarlow: RT @AnonoNews Books are trash. Corporations are people. Tents are terrorism. Pepper Spray soon to be declared a vegetable.',
      'Contemporary copyright agenda: "Level of control should vary inversely with ease of copying"  @thepublicdomain http://t.co/an77BnUG',
      'RT @WryneckStudio: BTW, Cory @doctorow will speak w/ @cmdln @newamerica in Washington DC tomorrow @ 12:30. Go to newamerica.net to reserve a seat! #copyfight'
    ],
    'webchick' => [
      undef,
      'So long, @drupalatx! Thanks for the ROCKIN\' conference! :D'
    ],
    'outlandishjosh' => [
      undef,
      'RT @jonskulski: Culture is a type of control over time.',
      'RT @mbrownerhamlin: RT @elliottjustin: Shepard Fairey occupyifies his Obama "HOPE" poster http://t.co/Qe2P5NN3 Statement: http://t.co/JgHAznJs #ows',
      'RT @RachelNichols1: GOOGLE: "I know everything!" FACEBOOK: "I know everyone!" INTERNET: "Without me you\'re all nothing!" ELECTRICITY: "Keep talking, bitches."',
      'Tonight\'s program of activities: Mac N Cheese, followed by MORE HUNGER GAMES',
      'Can we please have a college football playoff? http://t.co/KsSMCOvI',
      'For anyone with any doubts about what darkness flows Rupert Murdoch\'s Information Mordor (aka Fox News): http://t.co/3ByAoELY'
    ],
    'jbingold' => [
      undef,
      '@sylvainaube @drupalcampmtl @sfyn @ergonlogic @kumbit any chance ustream your BOF session on #aegir #ubercart  #drupalcampmtl ?'
    ],
    'ergonlogic' => [
      undef,
      'Could I really have gotten Twirssi going?',
      '@smoothginger Welcome to Twitter! Write to me directly by using @ergonlogic anywhere in your tweet',
      '@aegirproject I posted a first draft of an Aegir SaaS specification: http://t.co/vgXY0xL #aegir',
      '@darthsteven I\'ve been using Views Datasource for awhile now, but I think Data Export is a better solution for my next project. Thanks!',
      'Just finished shearing my dog after he had a full-on run-in with a skunk... oh joy.',
      '"Put the politicians on minimum wage and watch how fast things change" http://t.co/h7VqWJTi #ows',
      'Just to put things in perspective, $47,500 (USD) puts you in the 1% globally. Ref.: http://t.co/TtdtKS4e #ows',
      'Released Case Tracker Feeds Integration today: http://t.co/8b9XhyZV',
      'I\'ve started building a Debian package for Drush Make: http://t.co/Kz9AsTyX',
      'Just built myself a local Debian repo using reprepro. Should come in handy.',
      'Just got Aegir\'s DNS feature running (http://t.co/cZttAJpl). No more mucking around with dsnmasq or /etc/hosts. Thanks @aegirproject !',
      'Just wrote up a quick how-to for running Aegir\'s DNS in a local dev environment: http://t.co/34sdTCoC',
      '@darthsteven, would love to hear how the big migration goes',
      '@darthsteven I\'ve got a couple similar (master->master) migrations to do. Care to share your technique?',
      'at notman house, pre Montreal Drupal meetup',
      'I had to check this out for myself, but it\'s true: "1337% of PI is 42" Thanks for the insight @_mig5!',
      "\x{201c}\@theanarcat: i can hardly believe it, but i am now officially a #Debian developper, hurray!\x{201d} Congrats, Antoine!",
      "This one's definitely going in aegir-up! \"Nicholas Thompson: Quick Tip: Drupal Hook Commenting Using Vim http://t.co/tkAKDfy8\x{201d}",
      '@patconnolly Our geeking on vagrant, aegir, puppet vs. chef, etc. was one of the highlights of #dcto for me! & I look forward to your visit.',
      "Exciting times: \x{201c}\@heyrocker: [...] a high level architecture document for the configuration management initiative http://t.co/POtchb4m\x{201d}"
    ],
    'thisissethsblog' => [
      undef,
      'Seth\'s Blog: Your competitive advantage http://t.co/aGKy7LhD'
    ],
    'heyrocker' => [
      undef,
      'RT @Itangalo: The only way to continue to eat meat in a modern society is to ignore the consequences of meat production. Really.',
      'Two people in my twitterverse, who don\'t know each other, but both live in Seattle, started watching The Wire last night. @mikebaehr @kza',
      'RT @tilt_movie: "TILT: The Battle to Save Pinball" DVDs are back in stock! The ultimate documentary for any gamer or designer: http://t.co/LTlai8YM',
      'RT @nemejo: CMS\'s are a tech curmudgeon.  Yelling at new story forms to get off its lawn.  http://t.co/VynKHfbG',
      'Got down to inbox-above-the-fold. Will have to do for now.'
    ],
    'modules_full' => [
      undef,
      'JS callback: Overview This module is a clone of http://t.co/Y82aSFLh but fixes some issues that have bee... http://t.co/FUxVKzT2',
      'Ubercart Order Attributes: This module allows users with Ubercart\'s "edit orders" permission to edit the attribu... http://t.co/Ch4bbp9p'
    ],
    'crell' => [
      undef,
      'RT @chx: Copyright isn\'t working http://t.co/DdhN2m6a many see the current system as a tool to punish and withhold, not a tool to recognise & reward',
      'OH: "The @davereid and @jenreidreads branches have been merged."',
      'OH: "@rodney_the_cat is a bad_judgement module, however."',
      '"There are various things in #Drupal 6 that are... not quite as awesome." (via @EclipseGc)',
      'I may have to grudingly start using more Panels/Page Manager/Context Admin stuff. Damn you, @EclipseGc!',
      'Come here me talk about Code Smells at #DrupalCampAtx! Auditorium room right now!',
      'RT @brad_frost: WOW Best Buy removing barcodes from black Friday packaging to prevent smartphones from comparing prices http://t.co/EBwCIEGi #',
      'RT @Lawsonbulk: Fox News tells OWS there\'s no such thing as income inequality.  http://t.co/lsXJZarh',
      'RT @OccupyOregon: Great photo of @PortlandPolice protecting, serving. (via @AnonyOps) #opdx http://t.co/nX8BXhTz',
      "RT \@carwinb: Here\x{2019}s what attempted co-option of OWS looks like - http://t.co/43FSa1kZ http://t.co/2PPeNMlS",
      'RT @OccupyNashville: Rep. Deutch Introduces OCCUPIED Constitutional Amendment To Ban Corporate Money In Politics http://t.co/1GqA98qz',
      "RT \@MessinaFelipe: \@USDayofRage Obama has been quietly allowing the nation\x{2019}s worst police state repression of peaceful activity,1st Amend. http://t.co/ubW3d6HV",
      'RT @wilw: "What I\'m looking at is fairly standard police procedure." What the actual fuck. http://t.co/kCsobY4J #UCDavis #occupy #ows',
      'RT @GregSherrow: @USDayofRage STRONG: Open Letter to Chancellor Linda P.B. Katehi | UCDavis http://t.co/pscmKKUX #ows #usrevolution',
      'RT @lessig: HuffPo: Gingrich To Unveil Alt To Social Security http://t.co/F9cTe4xp Will work as well as his alt to Congress: http://t.co/7pGXKuW5',
      "RT \@carwinb: John Adams \x{201c}Elevate our children's minds & exalt their courage..excite a habitual contempt of meanness abhorrence of injustice & inhumanity\x{201d}"
    ],
    'drupalplanet' => [
      undef,
      'http://t.co/66NRx0s2: OG7 and Entity reference - Sponsor me http://t.co/V3tI5PlM',
      'NodeOne: New screencast series: learn Organic Groups http://t.co/3ReHy7xx',
      'Matthew Saunders: Project Management Keynote at Drupalcamp Austin http://t.co/qYomwBaW',
      'Matthew Saunders: Drupalcamp Austin - My Wrapup http://t.co/zH1jnS6Z'
    ],
    'aegirproject' => [
      undef,
      'RT @ergonlogic I posted a first draft of an #Aegir SaaS specification: http://t.co/cmLqhVQ'
    ],
    'jacobsingh' => [
      undef,
      'Just ordered the marrow testing kit because of @superamit.  Have to say @bethematch: WAY too many questions.',
      '"I Was Wrong, and So Are You": Fantastic article on the power of confirmation bias: http://t.co/U9RRV0xl'
    ],
    '_mig5' => [
      undef,
      'Fuck yeah science! // @breakfasters',
      'Argh. Should be excited and enthused about the work I\'ve got to do, but struggling to do anything but stare at my screen today :(',
      'Alors!',
      'RT @DrupalDownunder: Help design the program for #DDU2012 - vote for the sessions you\'d like to see in January http://t.co/RniXeZFP #Drupal',
      "RT \@juliendubreuil: RT \@SebCorbin: [Fr] Ce samedi DrupalCamp \x{e0} Toulouse, inscrivez-vous c'est gratuit ! http://t.co/VeB9DkQU"
    ],
    'lxbarth' => [
      undef,
      'Don\'t fuck with me http://t.co/aJsIYCNK'
    ],
    'zedshaw' => [
      undef,
      'RT @mkltesthead: new TESTHEAD: Exercise 23: Read Some Code: Learn Ruby the Hard W... http://t.co/qBnWKnp7',
      'ProGuitarShop is evil. I\'ll just watch their youtube channel with demos because it has awesome guitars and playing: http://t.co/3uA7Reuj',
      'This interview with Andrew Tanenbaum sucks: http://t.co/Rmj8huWu Just STFU about "Linux winning" and ask him about Minix3 you dickhead.',
      'Latest iteration on rcall.me: http://t.co/gbWosNeZ starting to get more useful for me.',
      'Here\'s my rcall.me links as a txt file: http://t.co/TpQJMtrT So I can get at them with curl and grep.',
      'A "plagiarism detection company" uses a shitty 3-words-3-times algorithm: http://t.co/IiEQ832m Anyone know what company this is?',
      'Iceland hunted down the bankers that collapsed the country then wrote a new constitution over the internet? Awesome: http://t.co/GVeTHrSd',
      'PixTracker for iOS looks fun: http://t.co/ta7Z0gZH',
      'An excellent review of the Kindle Fire that should probably just be in Amazon\'s bug tracker: http://t.co/EZAVcS51 (via @idangazit)',
      '"How To Wreck A Nice Beach": http://t.co/vfaaL8NO A book about the history of the Vocoder from WWII on. Looks interesting.',
      'If you\'re wondering why I\'m sending out so many links today, it\'s because I\'m playing with rcall.me. Hopefully they\'re still interesting.',
      'Holy shit, why did I not know about http://t.co/xr83S8Gm A list of command line bad assery *sorted by votes*.',
      'Ha! Query wikipedia via DNS TXT records.  Example: dig +short txt http://t.co/odbnpPeM (replace "England" with another keyword).',
      'Awesome, do: curl ifconfig.me  That gives you your *external* IP address.',
      'WTF is this .xz ending GNU projects started using? ftp://ftp.gnu.org/gnu/gnutls/ Yet another compressor? Was gzip not free enough?',
      '.xz files are http://t.co/pFwdPeqT and apparently the GNU TLS project has switched to it entirely because...I don\'t know.',
      'Ate some Ghost Pepper salsa. Very tasty and spicy. Then I read http://t.co/SGw31JSj and pepper spray is 2 Ghost Peppers in strength.'
    ]
  },
  '__usernames' => {
    'modules_sandbox' => [
      undef,
      'ergonlogic@Twitter',
      'ergonlogic@Twitter',
      'ergonlogic@Twitter',
      'ergonlogic@Twitter',
      'ergonlogic@Twitter',
      'ergonlogic@Twitter',
      'ergonlogic@Twitter',
      'ergonlogic@Twitter',
      'ergonlogic@Twitter',
      'ergonlogic@Twitter',
      'ergonlogic@Twitter',
      'ergonlogic@Twitter'
    ],
    'weitzman' => [
      undef,
      'ergonlogic@Twitter',
      'ergonlogic@Twitter'
    ],
    'patconnolly' => [
      undef,
      'ergonlogic@Twitter'
    ],
    'scyrma' => [
      undef,
      'ergonlogic@Twitter'
    ],
    'ericg' => [
      undef,
      'ergonlogic@Twitter',
      'ergonlogic@Twitter',
      'ergonlogic@Twitter',
      'ergonlogic@Twitter'
    ],
    'darthsteven' => [
      undef,
      'ergonlogic@Twitter',
      'ergonlogic@Twitter',
      'ergonlogic@Twitter',
      'ergonlogic@Twitter',
      'ergonlogic@Twitter'
    ],
    'doctorow' => [
      undef,
      'ergonlogic@Twitter',
      'ergonlogic@Twitter',
      'ergonlogic@Twitter',
      'ergonlogic@Twitter',
      'ergonlogic@Twitter',
      'ergonlogic@Twitter',
      'ergonlogic@Twitter',
      'ergonlogic@Twitter',
      'ergonlogic@Twitter',
      'ergonlogic@Twitter',
      'ergonlogic@Twitter',
      'ergonlogic@Twitter',
      'ergonlogic@Twitter',
      'ergonlogic@Twitter',
      'ergonlogic@Twitter',
      'ergonlogic@Twitter',
      'ergonlogic@Twitter',
      'ergonlogic@Twitter'
    ],
    'webchick' => [
      undef,
      'ergonlogic@Twitter'
    ],
    'outlandishjosh' => [
      undef,
      'ergonlogic@Twitter',
      'ergonlogic@Twitter',
      'ergonlogic@Twitter',
      'ergonlogic@Twitter',
      'ergonlogic@Twitter',
      'ergonlogic@Twitter'
    ],
    'jbingold' => [
      undef,
      'ergonlogic@Twitter'
    ],
    'ergonlogic' => [
      undef,
      'ergonlogic@Twitter',
      'ergonlogic@Twitter',
      'ergonlogic@Twitter',
      'ergonlogic@Twitter',
      'ergonlogic@Twitter',
      'ergonlogic@Twitter',
      'ergonlogic@Twitter',
      'ergonlogic@Twitter',
      'ergonlogic@Twitter',
      'ergonlogic@Twitter',
      'ergonlogic@Twitter',
      'ergonlogic@Twitter',
      'ergonlogic@Twitter',
      'ergonlogic@Twitter',
      'ergonlogic@Twitter',
      'ergonlogic@Twitter',
      'ergonlogic@Twitter',
      'ergonlogic@Twitter',
      'ergonlogic@Twitter',
      'ergonlogic@Twitter'
    ],
    'thisissethsblog' => [
      undef,
      'ergonlogic@Twitter'
    ],
    'heyrocker' => [
      undef,
      'ergonlogic@Twitter',
      'ergonlogic@Twitter',
      'ergonlogic@Twitter',
      'ergonlogic@Twitter',
      'ergonlogic@Twitter'
    ],
    'modules_full' => [
      undef,
      'ergonlogic@Twitter',
      'ergonlogic@Twitter'
    ],
    'crell' => [
      undef,
      'ergonlogic@Twitter',
      'ergonlogic@Twitter',
      'ergonlogic@Twitter',
      'ergonlogic@Twitter',
      'ergonlogic@Twitter',
      'ergonlogic@Twitter',
      'ergonlogic@Twitter',
      'ergonlogic@Twitter',
      'ergonlogic@Twitter',
      'ergonlogic@Twitter',
      'ergonlogic@Twitter',
      'ergonlogic@Twitter',
      'ergonlogic@Twitter',
      'ergonlogic@Twitter',
      'ergonlogic@Twitter',
      'ergonlogic@Twitter'
    ],
    'drupalplanet' => [
      undef,
      'ergonlogic@Twitter',
      'ergonlogic@Twitter',
      'ergonlogic@Twitter',
      'ergonlogic@Twitter'
    ],
    'aegirproject' => [
      undef,
      'ergonlogic@Twitter'
    ],
    'jacobsingh' => [
      undef,
      'ergonlogic@Twitter',
      'ergonlogic@Twitter'
    ],
    '_mig5' => [
      undef,
      'ergonlogic@Twitter',
      'ergonlogic@Twitter',
      'ergonlogic@Twitter',
      'ergonlogic@Twitter',
      'ergonlogic@Twitter'
    ],
    'lxbarth' => [
      undef,
      'ergonlogic@Twitter'
    ],
    'zedshaw' => [
      undef,
      'ergonlogic@Twitter',
      'ergonlogic@Twitter',
      'ergonlogic@Twitter',
      'ergonlogic@Twitter',
      'ergonlogic@Twitter',
      'ergonlogic@Twitter',
      'ergonlogic@Twitter',
      'ergonlogic@Twitter',
      'ergonlogic@Twitter',
      'ergonlogic@Twitter',
      'ergonlogic@Twitter',
      'ergonlogic@Twitter',
      'ergonlogic@Twitter',
      'ergonlogic@Twitter',
      'ergonlogic@Twitter',
      'ergonlogic@Twitter',
      'ergonlogic@Twitter'
    ]
  },
  '__created_ats' => {
    'modules_sandbox' => [
      undef,
      1321794277,
      1321823166,
      1321829061,
      1321830974,
      1321834792,
      1321850156,
      1321856021,
      1321857969,
      1321864520,
      1321874531,
      1321886388,
      1321890366
    ],
    'weitzman' => [
      undef,
      1321794402,
      1321843332
    ],
    'patconnolly' => [
      undef,
      1321546874
    ],
    'scyrma' => [
      undef,
      1321841191
    ],
    'ericg' => [
      undef,
      1321826532,
      1321827149,
      1321834558,
      1321890451
    ],
    'darthsteven' => [
      undef,
      1321822396,
      1321872627,
      1319110497,
      1319112978,
      1319115985
    ],
    'doctorow' => [
      undef,
      1321794997,
      1321795755,
      1321797270,
      1321804034,
      1321812211,
      1321821055,
      1321821585,
      1321821974,
      1321822008,
      1321822017,
      1321822031,
      1321822057,
      1321822197,
      1321822233,
      1321872382,
      1321877296,
      1321885337,
      1321885356
    ],
    'webchick' => [
      undef,
      1321821746
    ],
    'outlandishjosh' => [
      undef,
      1321819029,
      1321819086,
      1321840102,
      1321840184,
      1321840520,
      1321854920
    ],
    'jbingold' => [
      undef,
      1287937458
    ],
    'ergonlogic' => [
      undef,
      1321889620,
      1318127412,
      1314794930,
      1316178773,
      1317165922,
      1318129907,
      1318339313,
      1318638927,
      1318639012,
      1318864734,
      1319034500,
      1319039986,
      1319110457,
      1319114313,
      1319149338,
      1319460542,
      1320969258,
      1321303769,
      1321549876,
      1321649071
    ],
    'thisissethsblog' => [
      undef,
      1321869755
    ],
    'heyrocker' => [
      undef,
      1321800642,
      1321853828,
      1321857297,
      1321860405,
      1321870519
    ],
    'modules_full' => [
      undef,
      1321794561,
      1321813766
    ],
    'crell' => [
      undef,
      1321801223,
      1321804796,
      1321804838,
      1321806746,
      1321807624,
      1321807883,
      1321838012,
      1321838218,
      1321838267,
      1321839306,
      1321839462,
      1321846251,
      1321848265,
      1321885206,
      1321886914,
      1321889848
    ],
    'drupalplanet' => [
      undef,
      1321795881,
      1321810097,
      1321821118,
      1321857194
    ],
    'aegirproject' => [
      undef,
      1314795215
    ],
    'jacobsingh' => [
      undef,
      1321801885,
      1321883121
    ],
    '_mig5' => [
      undef,
      1321823978,
      1321837995,
      1321865775,
      1321867243,
      1321871283
    ],
    'lxbarth' => [
      undef,
      1321820754
    ],
    'zedshaw' => [
      undef,
      1321804747,
      1321806194,
      1321808519,
      1321811105,
      1321811487,
      1321814358,
      1321815740,
      1321815914,
      1321822274,
      1321823332,
      1321823432,
      1321824880,
      1321825083,
      1321825254,
      1321825995,
      1321826130,
      1321828378
    ]
  },
  '__ids' => {
    'modules_sandbox' => [
      undef,
      '138241336510918656',
      '138362503049646080',
      '138387229184770048',
      '138395256050819072',
      '138411266208317440',
      '138475707461410816',
      '138500310678241280',
      '138508481069191168',
      '138535957732401153',
      '138577946754551808',
      '138627675429421056',
      '138644363281571840'
    ],
    'weitzman' => [
      undef,
      '138241860371099648',
      '138447085996478464'
    ],
    'patconnolly' => [
      undef,
      '137203653110005761'
    ],
    'scyrma' => [
      undef,
      '138438109347053568'
    ],
    'ericg' => [
      undef,
      '138376622763028480',
      '138379209738436609',
      '138410284678258688',
      '138644718312636416'
    ],
    'darthsteven' => [
      undef,
      '138359276388352001',
      '138569957670797313',
      '126984747103694848',
      '126995154191126528',
      '127007762860351488'
    ],
    'doctorow' => [
      undef,
      '138244354400727040',
      '138247534299721728',
      '138253887860768768',
      '138282261647851520',
      '138316556756193280',
      '138353651600203776',
      '138355874367422464',
      '138357505125392384',
      '138357649577226240',
      '138357685304303616',
      '138357745270272002',
      '138357851713310722',
      '138358440987869185',
      '138358592901353473',
      '138568930678673408',
      '138589541350129664',
      '138623269640212480',
      '138623350615445504'
    ],
    'webchick' => [
      undef,
      '138356547565789184'
    ],
    'outlandishjosh' => [
      undef,
      '138345152002531328',
      '138345391035916288',
      '138433540944707584',
      '138433882121961473',
      '138435291986927616',
      '138495690845323264'
    ],
    'jbingold' => [
      undef,
      '28609140199'
    ],
    'ergonlogic' => [
      undef,
      '138641235173834752',
      '122861389088956416',
      '108883945202008064',
      '114688203830734848',
      '118828605764681728',
      '122871853478973440',
      '123750167827582977',
      '125006838948306944',
      '125007194927267841',
      '125953943040831489',
      '126665993215942659',
      '126689000441389056',
      '126984578173906944',
      '127000752030887936',
      '127147658749030400',
      '128452941752442880',
      '134780956115607552',
      '136183997452664833',
      '137216244196712448',
      '137632296864989184'
    ],
    'thisissethsblog' => [
      undef,
      '138557913290649600'
    ],
    'heyrocker' => [
      undef,
      '138268034107310080',
      '138491112519249920',
      '138505659971944448',
      '138518695730352128',
      '138561116937793536'
    ],
    'modules_full' => [
      undef,
      '138242528171393024',
      '138323077267333120'
    ],
    'crell' => [
      undef,
      '138270468607197184',
      '138285455945891840',
      '138285631947288576',
      '138293634054361090',
      '138297315516620800',
      '138298404911579136',
      '138424773129678848',
      '138425639530274818',
      '138425843822231552',
      '138430199476916225',
      '138430855969390592',
      '138459331782905856',
      '138467779522207745',
      '138622718726778880',
      '138629885005529088',
      '138642187603820544'
    ],
    'drupalplanet' => [
      undef,
      '138248063104974848',
      '138307687883612161',
      '138353913819697152',
      '138505226880679936'
    ],
    'aegirproject' => [
      undef,
      '108885140360540160'
    ],
    'jacobsingh' => [
      undef,
      '138273245215461376',
      '138613975179993088'
    ],
    '_mig5' => [
      undef,
      '138365910028255232',
      '138424700635316226',
      '138541221990760448',
      '138547376284631040',
      '138564321440571392'
    ],
    'lxbarth' => [
      undef,
      '138352388154195969'
    ],
    'zedshaw' => [
      undef,
      '138285251121258496',
      '138291319771631616',
      '138301070186254336',
      '138311915985317888',
      '138313520944132096',
      '138325563034173440',
      '138331356156542977',
      '138332086821068800',
      '138358765224337408',
      '138363202139471872',
      '138363621624385536',
      '138369694733312001',
      '138370546936193024',
      '138371262153113600',
      '138374369977171968',
      '138374935340007425',
      '138384364236050432'
    ]
  },
  '__indexes' => {
    'modules_sandbox' => 12,
    'weitzman' => 2,
    'patconnolly' => 1,
    'scyrma' => 1,
    'ericg' => 4,
    'darthsteven' => 5,
    'doctorow' => 18,
    'webchick' => 1,
    'outlandishjosh' => 6,
    'jbingold' => 1,
    'ergonlogic' => 20,
    'thisissethsblog' => 1,
    'heyrocker' => 5,
    'modules_full' => 2,
    'crell' => 16,
    'drupalplanet' => 4,
    'aegirproject' => 1,
    'jacobsingh' => 2,
    '_mig5' => 5,
    'lxbarth' => 1,
    'zedshaw' => 17
  }
};
